%YAML 1.1
%TAG !u! tag:unity3d.com,2011:
--- !u!114 &11400000
MonoBehaviour:
  m_ObjectHideFlags: 0
  m_CorrespondingSourceObject: {fileID: 0}
  m_PrefabInstance: {fileID: 0}
  m_PrefabAsset: {fileID: 0}
  m_GameObject: {fileID: 0}
  m_Enabled: 1
  m_EditorHideFlags: 0
  m_Script: {fileID: 11500000, guid: 35f6edf0e9816064a804e2ec1e6522eb, type: 3}
  m_Name: PS_Eil
  m_EditorClassIdentifier: 
  shipName: Eil
  moveSpeed: 0.5
  slowDownMoveMultiplyer: 0.8
  floatSpeed: 1
  floatSpeedIncrement: 0.002
  shieldActiveTime: 7
  shipRotationSpeed: 15
  shipInertiaAmount: 0
  shipOxygenDecrimentRate: 2
  crashDamage: 100
  mainShipSprite: {fileID: 21300042, guid: d3cec4d943d9e794f9b62c0f632d3286, type: 3}
  projectileFirePointOffset: {x: 0, y: 0.69}
  mainShipPolygonCollider:
  - {x: 0, y: 0.63401705}
  - {x: -0.27748594, y: -0}
  - {x: -0.4748279, y: -0.18589395}
  - {x: -0.48755658, y: -0.3005548}
  - {x: -0.26776305, y: -0.43645585}
  - {x: -0.071676224, y: -0.6644471}
  - {x: 0.07424545, y: -0.6625995}
  - {x: 0.25461325, y: -0.45217574}
  - {x: 0.51007414, y: -0.3202411}
  - {x: 0.48144442, y: -0.18844211}
  - {x: 0.26748008, y: -0}
  shieldSpriteAnimID: 0
  shieldColliderOffset: {x: 0, y: 0}
  shieldColliderRadius: 0.85
  shipMenuDisplaySprite: {fileID: 21300042, guid: d3cec4d943d9e794f9b62c0f632d3286,
    type: 3}
  shipID: 0
